<svg width="19" height="19" viewBox="0 0 19 19" fill="none" xmlns="http://www.w3.org/2000/svg">
<path fill-rule="evenodd" clip-rule="evenodd" d="M11.3727 2.25L15.875 6.75V16.4948C15.8764 16.6937 15.7987 16.885 15.659 17.0266C15.5194 17.1683 15.3292 17.2486 15.1302 17.25H3.11975C2.70873 17.25 2.37541 16.917 2.375 16.506V2.994C2.375 2.59125 2.71175 2.25 3.1265 2.25H11.3727ZM10.625 3.75H3.875V15.75H14.375V7.5H10.625V3.75ZM6.125 6H8.375V7.5H6.125V6ZM6.125 9H12.125V10.5H6.125V9ZM6.125 12H12.125V13.5H6.125V12Z" fill="white"/>
</svg>
