<svg width="19" height="20" viewBox="0 0 19 20" fill="none" xmlns="http://www.w3.org/2000/svg">
<g id="&#240;&#159;&#154;&#171; Ne pas changer - Succ&#195;&#168;s">
<path id="Ic&#195;&#180;ne" fill-rule="evenodd" clip-rule="evenodd" d="M15.5196 2.80469H4.1041C3.26349 2.80469 2.58203 3.48614 2.58203 4.32676V15.7423C2.58203 16.5829 3.26349 17.2644 4.1041 17.2644H15.5196C16.3602 17.2644 17.0417 16.5829 17.0417 15.7423V4.32676C17.0417 3.48614 16.3602 2.80469 15.5196 2.80469ZM10.5729 6.22935H9.05083V7.75142H10.5729V6.22935ZM10.5729 9.27349H9.05083V13.8397H10.5729V9.27349Z" fill="#4D1C6B"/>
</g>
</svg>
