<svg width="49" height="49" viewBox="0 0 49 49" fill="none" xmlns="http://www.w3.org/2000/svg">
<g id="lightbulb">
<path id="Ic&#195;&#180;ne" fill-rule="evenodd" clip-rule="evenodd" d="M22.5006 36.2031H16.3826C15.7886 33.6571 13.1086 31.5751 12.0086 30.2031C6.77176 23.6601 7.47109 14.1848 13.6118 8.48152C19.7525 2.77826 29.2536 2.77978 35.3924 8.48501C41.5313 14.1902 42.2276 23.6658 36.9886 30.2071C35.8886 31.5771 33.2126 33.6591 32.6186 36.2031H26.5006V26.2031H22.5006V36.2031ZM32.5006 40.2031V42.2031C32.5006 44.4122 30.7098 46.2031 28.5006 46.2031H20.5006C18.2915 46.2031 16.5006 44.4122 16.5006 42.2031V40.2031H32.5006Z" fill="#AF5CE2"/>
</g>
</svg>
