<svg width="18" height="19" viewBox="0 0 18 19" fill="none" xmlns="http://www.w3.org/2000/svg">
<path d="M13.2132 4.976L14.3029 3.88625L15.3634 4.94675L14.2737 6.0365C15.3505 7.38438 15.8704 9.09341 15.7265 10.8126C15.5826 12.5318 14.7859 14.1306 13.5 15.2808C12.2142 16.4309 10.5367 17.0451 8.81217 16.9971C7.08763 16.9491 5.44693 16.2425 4.22703 15.0226C3.00713 13.8027 2.30062 12.162 2.25262 10.4375C2.20461 8.71298 2.81874 7.03551 3.96889 5.74963C5.11903 4.46375 6.71789 3.66706 8.43708 3.52319C10.1563 3.37931 11.8653 3.89917 13.2132 4.976ZM8.24968 6.5V11H9.74968V6.5H8.24968ZM5.99968 1.25H11.9997V2.75H5.99968V1.25Z" fill="#AF5CE2"/>
</svg>
