<svg width="6" height="6" viewBox="0 0 6 6" fill="none" xmlns="http://www.w3.org/2000/svg">
<path fill-rule="evenodd" clip-rule="evenodd" d="M3.22267 4.72758C2.12319 4.72758 1.23193 3.83632 1.23193 2.73683C1.23193 1.63735 2.12319 0.746094 3.22267 0.746094C4.32216 0.746094 5.21342 1.63735 5.21342 2.73683C5.21342 3.83632 4.32216 4.72758 3.22267 4.72758ZM3.22267 4.32943C4.10224 4.32943 4.81527 3.6164 4.81527 2.73683C4.81527 1.85727 4.10224 1.14424 3.22267 1.14424C2.34311 1.14424 1.63008 1.85727 1.63008 2.73683C1.63008 3.6164 2.34311 4.32943 3.22267 4.32943ZM3.0236 3.33406H3.42175V3.7322H3.0236V3.33406ZM3.42175 3.00658V3.13498H3.0236V2.83637C3.0236 2.72643 3.11273 2.6373 3.22267 2.6373C3.37997 2.63729 3.51029 2.51526 3.52062 2.3583C3.53095 2.20134 3.41775 2.06328 3.26181 2.04265C3.10587 2.02203 2.96067 2.12591 2.92984 2.28016L2.53925 2.20192C2.60624 1.86713 2.9059 1.63015 3.24712 1.64213C3.58834 1.65411 3.87064 1.91151 3.91399 2.25018C3.95733 2.58885 3.74895 2.90905 3.42175 3.00658Z" fill="#4D1C6B"/>
</svg>
